Network analysis demo
…
Loading the data and creating the graph

Networks are defined by a tidy data frame of edges and (optionally) a tidy data frame of nodes. The nodes are the things that are connected, and the edges are the connections between them. A node table has one column with of node names,with one row for each node. Optionally there can be additional columns describing additional variables about the nodes. An edge table has at least two columns of node names showing a connection between them. The edge table can optionally include additional columns of data that describe the connections. If you needed to, you could even just use the edges table, because you can deduce a basic nodes table from the edges. (If you know that A is connected to B, then that implies that A and B are nodes in your network.)

Lets read the data and examine it.

edges_df <- read_csv("data/field-states-edges.csv")
nodes_df <- read_csv("data/field-states-nodes.csv")

The nodes_df table lists out the states that are a part of the network. The column on the far left, name, is the identifier for the node. We also have additional data for each node, in this case, the region as a categorical variable.

nodes_df

## # A tibble: 36 x 2
##    name  region 
##    <chr> <chr>  
##  1 AK    West   
##  2 AR    South  
##  3 AZ    West   
##  4 CA    West   
##  5 CO    West   
##  6 DC    South  
##  7 SD    West   
##  8 FL    South  
##  9 IA    Midwest
## 10 ID    West   
## #  with 26 more rows

The edges_df table show how those nodes are connected. The first two columns, from and to show that the one node is connected to another. Notice that in this case the network is directed. Alaska borrowed from Oregon, not the other way around.

edges_df

## # A tibble: 48 x 3
##    from  to    sections_borrowed
##    <chr> <chr>             <dbl>
##  1 AK    OR                  709
##  2 AR    KY                  774
##  3 AR    MO                  107
##  4 AZ    CA                  889
##  5 AZ    MT                  134
##  6 CA    NY                  840
##  7 CO    CA                  179
##  8 CO    IL                  159
##  9 DC    IN                  229
## 10 FL    NY                  189
## #  with 38 more rows
…
